(Scribbled version of C:\Users\ricky\AppData\Local\Temp\ink_ext_XXXXXX.svgMS3RK0 @ 3500.00)
( unicorn.py --tab="plotter_setup" --pen-up-angle=50 --pen-down-angle=30 --start-delay=150 --stop-delay=150 --xy-feedrate=3500 --z-feedrate=150 --z-height=0 --finished-height=0 --register-pen=true --x-home=0 --y-home=0 --num-copies=1 --continuous=false --pause-on-layer-change=false C:\Users\ricky\AppData\Local\Temp\ink_ext_XXXXXX.svgMS3RK0 )
G21 (metric ftw)
G90 (absolute mode)
G92 X0.00 Y0.00 Z0.00 (you are here)

M300 S30 (pen down)
G4 P150 (wait 150ms)
M300 S50 (pen up)
G4 P150 (wait 150ms)
M18 (disengage drives)
M01 (Was registration test successful?)
M17 (engage drives if YES, and continue)

(Polyline consisting of 1 segments.)
G1 X1.96 Y51.31 F3500.00
M300 S30.00 (pen down)
G4 P150 (wait 150ms)
G1 X2.62 Y51.03 F3500.00
G1 X2.94 Y50.58 F3500.00
G1 X2.84 Y49.44 F3500.00
G1 X2.09 Y48.31 F3500.00
G1 X1.12 Y47.62 F3500.00
G1 X-0.13 Y47.38 F3500.00
G1 X-1.31 Y47.52 F3500.00
G1 X-2.38 Y47.98 F3500.00
G1 X-3.33 Y48.71 F3500.00
G1 X-4.77 Y50.70 F3500.00
G1 X-5.42 Y53.01 F3500.00
G1 X-5.34 Y54.99 F3500.00
G1 X-4.78 Y56.80 F3500.00
G1 X-3.83 Y58.41 F3500.00
G1 X-2.55 Y59.79 F3500.00
G1 X-1.01 Y60.91 F3500.00
G1 X0.73 Y61.73 F3500.00
G1 X2.59 Y62.24 F3500.00
G1 X4.50 Y62.39 F3500.00
G1 X7.20 Y62.03 F3500.00
G1 X9.65 Y61.08 F3500.00
G1 X11.80 Y59.64 F3500.00
G1 X13.61 Y57.79 F3500.00
G1 X15.05 Y55.61 F3500.00
G1 X16.08 Y53.18 F3500.00
G1 X16.65 Y50.59 F3500.00
G1 X16.73 Y47.93 F3500.00
G1 X16.11 Y44.51 F3500.00
G1 X14.78 Y41.43 F3500.00
G1 X12.85 Y38.73 F3500.00
G1 X10.42 Y36.48 F3500.00
G1 X7.60 Y34.71 F3500.00
G1 X4.47 Y33.48 F3500.00
G1 X1.15 Y32.85 F3500.00
G1 X-2.27 Y32.85 F3500.00
G1 X-6.41 Y33.73 F3500.00
G1 X-10.12 Y35.44 F3500.00
G1 X-13.36 Y37.85 F3500.00
G1 X-16.06 Y40.86 F3500.00
G1 X-18.15 Y44.33 F3500.00
G1 X-19.58 Y48.16 F3500.00
G1 X-20.28 Y52.22 F3500.00
G1 X-20.19 Y56.39 F3500.00
G1 X-19.06 Y61.25 F3500.00
G1 X-16.97 Y65.60 F3500.00
G1 X-14.07 Y69.38 F3500.00
G1 X-10.49 Y72.52 F3500.00
G1 X-6.36 Y74.94 F3500.00
G1 X-1.84 Y76.57 F3500.00
G1 X2.96 Y77.34 F3500.00
G1 X7.89 Y77.16 F3500.00
G1 X10.74 Y76.61 F3500.00
G1 X13.46 Y75.78 F3500.00
G1 X18.45 Y73.31 F3500.00
G1 X22.78 Y69.92 F3500.00
G1 X26.36 Y65.76 F3500.00
G1 X29.11 Y60.99 F3500.00
G1 X30.94 Y55.76 F3500.00
G1 X31.77 Y50.22 F3500.00
G1 X31.50 Y44.54 F3500.00
G1 X30.85 Y41.32 F3500.00
G1 X29.87 Y38.25 F3500.00
G1 X28.59 Y35.35 F3500.00
G1 X27.03 Y32.62 F3500.00
G1 X25.21 Y30.08 F3500.00
G1 X23.15 Y27.74 F3500.00
G1 X18.41 Y23.72 F3500.00
G1 X12.99 Y20.64 F3500.00
G1 X7.05 Y18.61 F3500.00
G1 X3.94 Y18.02 F3500.00
G1 X0.78 Y17.73 F3500.00
G1 X-2.43 Y17.74 F3500.00
G1 X-5.66 Y18.08 F3500.00
G1 X-9.25 Y18.84 F3500.00
G1 X-12.66 Y19.96 F3500.00
G1 X-15.90 Y21.42 F3500.00
G1 X-18.93 Y23.18 F3500.00
G1 X-21.76 Y25.23 F3500.00
G1 X-24.36 Y27.55 F3500.00
G1 X-26.72 Y30.10 F3500.00
G1 X-28.82 Y32.86 F3500.00
G1 X-30.67 Y35.82 F3500.00
G1 X-32.23 Y38.94 F3500.00
G1 X-33.50 Y42.20 F3500.00
G1 X-34.46 Y45.58 F3500.00
G1 X-35.10 Y49.05 F3500.00
G1 X-35.41 Y52.59 F3500.00
G1 X-35.36 Y56.18 F3500.00
G1 X-34.96 Y59.78 F3500.00
G1 X-34.10 Y63.74 F3500.00
G1 X-32.83 Y67.50 F3500.00
G1 X-31.21 Y71.07 F3500.00
G1 X-29.24 Y74.41 F3500.00
G1 X-26.96 Y77.52 F3500.00
G1 X-24.39 Y80.38 F3500.00
G1 X-21.55 Y82.98 F3500.00
G1 X-18.49 Y85.29 F3500.00
G1 X-15.22 Y87.31 F3500.00
G1 X-11.76 Y89.03 F3500.00
G1 X-8.15 Y90.41 F3500.00
G1 X-4.42 Y91.46 F3500.00
G1 X-0.58 Y92.15 F3500.00
G1 X3.33 Y92.46 F3500.00
G1 X7.29 Y92.40 F3500.00
G1 X11.28 Y91.93 F3500.00
G1 X15.60 Y90.96 F3500.00
G1 X19.72 Y89.56 F3500.00
G1 X23.61 Y87.75 F3500.00
G1 X27.26 Y85.58 F3500.00
G1 X30.66 Y83.07 F3500.00
G1 X33.78 Y80.24 F3500.00
G1 X36.61 Y77.13 F3500.00
G1 X39.14 Y73.77 F3500.00
G1 X41.34 Y70.18 F3500.00
G1 X43.20 Y66.39 F3500.00
G1 X44.70 Y62.43 F3500.00
G1 X45.83 Y58.34 F3500.00
G1 X46.57 Y54.13 F3500.00
G1 X46.90 Y49.85 F3500.00
G1 X46.80 Y45.51 F3500.00
G1 X46.27 Y41.15 F3500.00
M300 S50.00 (pen up)
G4 P150 (wait 150ms)


(end of print job)
M300 S50.00 (pen up)
G4 P150 (wait 150ms)
M300 S255 (turn off servo)
G1 X0 Y0 F3500.00
G1 Z0.00 F150.00 (go up to finished level)
G1 X0.00 Y0.00 F3500.00 (go home)
M18 (drives off)
